…
***Comment:***  
  - `Liaison pilot` and `Liason pilot` can be grouped.  
  - `Single engine` and `Twin engine` are the most common types.  
  
#### **Column `state`:**

Count the occurrence of states where airmen were in charge.

```r
airmen_raw %>% 
  count(state, sort = TRUE)
```

```
# A tibble: 49 x 2
   state     n
   <chr> <int>
 1 IL      102
 2 NY       90
 3 PA       80
 4 CA       72
 5 OH       69
 6 MI       53
 7 NJ       49
 8 VA       39
 9 DC       37
10 TX       37
# ... with 39 more rows
```
…
#### **Column `number_of_aerial_victory_credits`:**

Arrange airmen on the basis of the number of aerial victory credits.

```r
airmen_raw %>% 
  arrange(desc(number_of_aerial_victory_credits)) %>% 
  select(name, number_of_aerial_victory_credits)
```

```
# A tibble: 1,006 x 2
   name                   number_of_aerial_victory_credits
   <chr>                                             <dbl>
 1 Archer, Lee A.                                        4
 2 Elsberry, Joseph D.                                   4
 3 Toppins, Edward L.                                    4
 4 Hall, Charles B.                                      3
 5 Jackson, Leonard M.                                   3
 6 Lester, Clarence D.                                   3
 7 Pruitt, Wendell O.                                    3
 8 Romine, Roger                                         3
 9 Stewart, Harry T., Jr.                                3
10 Bailey, Charles P.                                    2
# ... with 996 more rows
```
…
## **Performing exploratory data analysis** 

### **Question 1:**

We would like to have an idea on spatial Distribution of airmen across the US.  

```r
airmen_vs_states <- airmen %>% 
  count(state)
airmen_vs_states
```

```
# A tibble: 46 x 2
   state     n
   <chr> <int>
 1 AL       35
 2 AR        8
 3 AZ       13
 4 CA       72
 5 CN        1
 6 CO        8
 7 CT        7
 8 DC       37
 9 DE        2
10 FL       11
# ... with 36 more rows
```
…
